numOfSSDPages = 24899
Stored 0 pages
yay initialization done!
Cache manager: entering here
IO manager: entering here
0
TIME_APP: 52826.3 (sec)
Bandwidth utilization is 9.24869(MB/sec)
Average IO parallelism = 5.70265
