GraphSSDResults
com-friendster PageRank_graphSSD NumberOfIOThreads = 1 NumOfCacheThreads = 3 NumOfRequestingThreads = 1 NumberOfResponseThreads = 1
YahooWebScope PageRank_graphSSD NumberOfIOThreads = 1 NumOfCacheThreads = 3 NumOfRequestingThreads = 1 NumberOfResponseThreads = 1
BaselineResults
com-friendster
com-friendster PageRank_baseline NumberOfIOThreads = 1 NumOfCacheThreads = 3 NumOfRequestingThreads = 1 NumberOfResponseThreads = 1
YahooWebScope
YahooWebScope PageRank_baseline NumberOfIOThreads = 1 NumOfCacheThreads = 3 NumOfRequestingThreads = 1 NumberOfResponseThreads = 1
GraphSSDResults
com-friendster BFS_graphSSD NumberOfIOThreads = 1 NumOfCacheThreads = 3 NumOfRequestingThreads = 1 NumberOfResponseThreads = 1
YahooWebScope BFS_graphSSD NumberOfIOThreads = 1 NumOfCacheThreads = 3 NumOfRequestingThreads = 1 NumberOfResponseThreads = 1
BaselineResults
com-friendster
com-friendster BFS_baseline NumberOfIOThreads = 1 NumOfCacheThreads = 3 NumOfRequestingThreads = 1 NumberOfResponseThreads = 1
YahooWebScope
YahooWebScope BFS_baseline NumberOfIOThreads = 1 NumOfCacheThreads = 3 NumOfRequestingThreads = 1 NumberOfResponseThreads = 1
/Data/Benchmarks/SNAP/ProcessedGraphs/csr_files/YahooWebScope_csr.txt
NumNodes = 1413511394 NumEdges = 12869122070
Cache manager: entering here
IO manager: entering here
currentIteration = 1
currentIteration = 2
tid = 0 breaking after iterations = 2
currentIteration = 2
Element not found
One vertex in next level = 5
TIME_APP: 0.00517662 (sec)
Bandwidth utilization is 72.7949(MB/sec)
Average IO parallelism = 7.47826
Number of IO pages read = 23
rH = 1197 rM = 9 cH = 1182 cM = 14
nrR = 0.992537 ncR = 0.988294
/Data/Benchmarks/SNAP/ProcessedGraphs/csr_files/YahooWebScope_csr.txt
NumNodes = 1413511394 NumEdges = 12869122070
Cache manager: entering here
IO manager: entering here
currentIteration = 1
currentIteration = 2
currentIteration = 3
currentIteration = 4
tid = 0 breaking after iterations = 4
currentIteration = 4
Element not found
One vertex in next level = 75
TIME_APP: 2.16933 (sec)
Bandwidth utilization is 477.813(MB/sec)
Average IO parallelism = 125.599
Number of IO pages read = 63265
rH = 141969 rM = 25023 cH = 134800 cM = 38242
nrR = 0.850154 ncR = 0.779002
/Data/Benchmarks/SNAP/ProcessedGraphs/csr_files/YahooWebScope_csr.txt
NumNodes = 1413511394 NumEdges = 12869122070
Cache manager: entering here
IO manager: entering here
currentIteration = 1
currentIteration = 2
currentIteration = 3
currentIteration = 4
currentIteration = 5
currentIteration = 6
tid = 0 breaking after iterations = 6
currentIteration = 6
Element not found
One vertex in next level = 9
TIME_APP: 928.807 (sec)
Bandwidth utilization is 76.4038(MB/sec)
Average IO parallelism = 40.7357
Number of IO pages read = 4331326
rH = 294059256 rM = 1080571 cH = 293662091 cM = 3250755
nrR = 0.996339 ncR = 0.989051
/Data/Benchmarks/SNAP/ProcessedGraphs/csr_files/YahooWebScope_csr.txt
NumNodes = 1413511394 NumEdges = 12869122070
Cache manager: entering here
IO manager: entering here
currentIteration = 1
currentIteration = 2
currentIteration = 3
currentIteration = 4
currentIteration = 5
currentIteration = 6
currentIteration = 7
currentIteration = 8
tid = 0 breaking after iterations = 8
currentIteration = 8
Element not found
One vertex in next level = 96
TIME_APP: 1677.08 (sec)
Bandwidth utilization is 81.3242(MB/sec)
Average IO parallelism = 29.1417
Number of IO pages read = 8324406
rH = 654063086 rM = 2290125 cH = 653333843 cM = 6034281
nrR = 0.996511 ncR = 0.990848
/Data/Benchmarks/SNAP/ProcessedGraphs/csr_files/YahooWebScope_csr.txt
NumNodes = 1413511394 NumEdges = 12869122070
IO manager: entering here
Cache manager: entering here
currentIteration = 1
currentIteration = 2
currentIteration = 3
currentIteration = 4
currentIteration = 5
currentIteration = 6
currentIteration = 7
currentIteration = 8
currentIteration = 9
currentIteration = 10
currentIteration = 11
currentIteration = 12
tid = 0 breaking after iterations = 12
currentIteration = 12
Element not found
One vertex in next level = 4509
TIME_APP: 1759.46 (sec)
Bandwidth utilization is 95.4146(MB/sec)
Average IO parallelism = 35.3208
Number of IO pages read = 10246442
rH = 687101217 rM = 3287852 cH = 686473094 cM = 6958590
nrR = 0.995238 ncR = 0.989965
/Data/Benchmarks/SNAP/ProcessedGraphs/csr_files/YahooWebScope_csr.txt
NumNodes = 1413511394 NumEdges = 12869122070
Cache manager: entering here
IO manager: entering here
currentIteration = 1
currentIteration = 2
currentIteration = 3
currentIteration = 4
currentIteration = 5
currentIteration = 6
currentIteration = 7
currentIteration = 8
currentIteration = 9
currentIteration = 10
currentIteration = 11
currentIteration = 12
currentIteration = 13
currentIteration = 14
currentIteration = 15
currentIteration = 16
tid = 0 breaking after iterations = 16
currentIteration = 16
Element not found
One vertex in next level = 279244
TIME_APP: 1787.92 (sec)
Bandwidth utilization is 94.293(MB/sec)
Average IO parallelism = 35.2275
Number of IO pages read = 10289808
rH = 695716468 rM = 3307654 cH = 695032229 cM = 6982154
nrR = 0.995268 ncR = 0.990054
/Data/Benchmarks/SNAP/ProcessedGraphs/csr_files/YahooWebScope_csr.txt
NumNodes = 1413511394 NumEdges = 12869122070
Cache manager: entering here
IO manager: entering here
currentIteration = 1
currentIteration = 2
tid = 0 breaking after iterations = 2
currentIteration = 2
Element not found
One vertex in next level = 5
TIME_APP: 0.00290112 (sec)
Bandwidth utilization is 129.892(MB/sec)
Average IO parallelism = 3.82609
Number of IO pages read = 23
rH = 1202 rM = 9 cH = 1197 cM = 14
nrR = 0.992568 ncR = 0.988439
/Data/Benchmarks/SNAP/ProcessedGraphs/csr_files/YahooWebScope_csr.txt
NumNodes = 1413511394 NumEdges = 12869122070
Cache manager: entering here
IO manager: entering here
currentIteration = 1
currentIteration = 2
currentIteration = 3
tid = 0 breaking after iterations = 3
currentIteration = 3
Element not found
One vertex in next level = 4589
TIME_APP: 0.0255767 (sec)
Bandwidth utilization is 237.015(MB/sec)
Average IO parallelism = 62.6
Number of IO pages read = 370
rH = 3272 rM = 106 cH = 3242 cM = 264
nrR = 0.96862 ncR = 0.924701
/Data/Benchmarks/SNAP/ProcessedGraphs/csr_files/YahooWebScope_csr.txt
NumNodes = 1413511394 NumEdges = 12869122070
Cache manager: entering here
IO manager: entering here
currentIteration = 1
currentIteration = 2
currentIteration = 3
currentIteration = 4
tid = 0 breaking after iterations = 4
currentIteration = 4
Element not found
One vertex in next level = 75
TIME_APP: 2.02441 (sec)
Bandwidth utilization is 512.018(MB/sec)
Average IO parallelism = 127.03
Number of IO pages read = 63265
rH = 141360 rM = 25023 cH = 134304 cM = 38242
nrR = 0.849606 ncR = 0.778366
/Data/Benchmarks/SNAP/ProcessedGraphs/csr_files/YahooWebScope_csr.txt
NumNodes = 1413511394 NumEdges = 12869122070
Cache manager: entering here
IO manager: entering here
currentIteration = 1
currentIteration = 2
currentIteration = 3
currentIteration = 4
currentIteration = 5
tid = 0 breaking after iterations = 5
currentIteration = 5
Element not found
One vertex in next level = 11
TIME_APP: 80.2439 (sec)
Bandwidth utilization is 313.259(MB/sec)
Average IO parallelism = 84.2739
Number of IO pages read = 1534247
rH = 15322012 rM = 445952 cH = 15003925 cM = 1088295
nrR = 0.971718 ncR = 0.932371
/Data/Benchmarks/SNAP/ProcessedGraphs/csr_files/YahooWebScope_csr.txt
NumNodes = 1413511394 NumEdges = 12869122070
Cache manager: entering here
IO manager: entering here
currentIteration = 1
currentIteration = 2
currentIteration = 3
currentIteration = 4
currentIteration = 5
currentIteration = 6
tid = 0 breaking after iterations = 6
currentIteration = 6
Element not found
One vertex in next level = 9
TIME_APP: 869.75 (sec)
Bandwidth utilization is 81.5938(MB/sec)
Average IO parallelism = 39.6919
Number of IO pages read = 4331435
rH = 293958529 rM = 1080583 cH = 293573015 cM = 3250852
nrR = 0.996337 ncR = 0.989048
/Data/Benchmarks/SNAP/ProcessedGraphs/csr_files/YahooWebScope_csr.txt
NumNodes = 1413511394 NumEdges = 12869122070
Cache manager: entering here
IO manager: entering here
currentIteration = 1
currentIteration = 2
currentIteration = 3
currentIteration = 4
currentIteration = 5
currentIteration = 6
currentIteration = 7
tid = 0 breaking after iterations = 7
currentIteration = 7
Element not found
One vertex in next level = 30
TIME_APP: 1476.87 (sec)
Bandwidth utilization is 75.0127(MB/sec)
Average IO parallelism = 32.2921
Number of IO pages read = 6761737
rH = 554061262 rM = 1705879 cH = 553473088 cM = 5055858
nrR = 0.996931 ncR = 0.990948
GraphSSDResults
com-friendster CC_graphSSD NumberOfIOThreads = 1 NumOfCacheThreads = 3 NumOfRequestingThreads = 1 NumberOfResponseThreads = 1
YahooWebScope CC_graphSSD NumberOfIOThreads = 1 NumOfCacheThreads = 3 NumOfRequestingThreads = 1 NumberOfResponseThreads = 1
BaselineResults
com-friendster
com-friendster CC_baseline NumberOfIOThreads = 1 NumOfCacheThreads = 3 NumOfRequestingThreads = 1 NumberOfResponseThreads = 1
YahooWebScope
YahooWebScope CC_baseline NumberOfIOThreads = 1 NumOfCacheThreads = 3 NumOfRequestingThreads = 1 NumberOfResponseThreads = 1
GraphSSDResults
com-friendster RandomWalk_graphSSD NumberOfIOThreads = 1 NumOfCacheThreads = 3 NumOfRequestingThreads = 8 NumberOfResponseThreads = 8
YahooWebScope RandomWalk_graphSSD NumberOfIOThreads = 1 NumOfCacheThreads = 3 NumOfRequestingThreads = 8 NumberOfResponseThreads = 8
BaselineResults
com-friendster
com-friendster RandomWalk_baseline NumberOfIOThreads = 1 NumOfCacheThreads = 3 NumOfRequestingThreads = 8 NumberOfResponseThreads = 8
YahooWebScope
YahooWebScope RandomWalk_baseline NumberOfIOThreads = 1 NumOfCacheThreads = 3 NumOfRequestingThreads = 8 NumberOfResponseThreads = 8
GraphSSDResults
com-friendster MB_graphSSD NumberOfIOThreads = 1 NumOfCacheThreads = 3 NumOfRequestingThreads = 1 NumberOfResponseThreads = 1
YahooWebScope MB_graphSSD NumberOfIOThreads = 1 NumOfCacheThreads = 3 NumOfRequestingThreads = 1 NumberOfResponseThreads = 1
BaselineResults
com-friendster
com-friendster MB_baseline NumberOfIOThreads = 1 NumOfCacheThreads = 3 NumOfRequestingThreads = 1 NumberOfResponseThreads = 1
YahooWebScope
YahooWebScope MB_baseline NumberOfIOThreads = 1 NumOfCacheThreads = 3 NumOfRequestingThreads = 1 NumberOfResponseThreads = 1
GraphSSDResults
com-friendster GC_graphSSD NumberOfIOThreads = 1 NumOfCacheThreads = 3 NumOfRequestingThreads = 1 NumberOfResponseThreads = 1
YahooWebScope GC_graphSSD NumberOfIOThreads = 1 NumOfCacheThreads = 3 NumOfRequestingThreads = 1 NumberOfResponseThreads = 1
BaselineResults
com-friendster
com-friendster GC_baseline NumberOfIOThreads = 1 NumOfCacheThreads = 3 NumOfRequestingThreads = 1 NumberOfResponseThreads = 1
YahooWebScope
YahooWebScope GC_baseline NumberOfIOThreads = 1 NumOfCacheThreads = 3 NumOfRequestingThreads = 1 NumberOfResponseThreads = 1
GraphSSDResults
com-friendster GC_graphSSD NumberOfIOThreads = 1 NumOfCacheThreads = 3 NumOfRequestingThreads = 1 NumberOfResponseThreads = 1
YahooWebScope GC_graphSSD NumberOfIOThreads = 1 NumOfCacheThreads = 3 NumOfRequestingThreads = 1 NumberOfResponseThreads = 1
BaselineResults
com-friendster
com-friendster GC_baseline NumberOfIOThreads = 1 NumOfCacheThreads = 3 NumOfRequestingThreads = 1 NumberOfResponseThreads = 1
YahooWebScope
YahooWebScope GC_baseline NumberOfIOThreads = 1 NumOfCacheThreads = 3 NumOfRequestingThreads = 1 NumberOfResponseThreads = 1
