TRICOUNT_graphSSD
numOfSSDPages = 2793
1965206 5533214
i = 0
i = 100000
i = 200000
i = 300000
i = 400000
i = 500000
i = 600000
i = 700000
i = 800000
i = 900000
i = 1000000
i = 1100000
i = 1200000
i = 1300000
i = 1400000
i = 1500000
i = 1600000
i = 1700000
i = 1800000
i = 1900000
120676

TIME_RD: 9.529936
MaxCacheSize = 299936 numOfCacheAccesses = 2321872 numOfCacheAccesses_aux = 0 numOfCacheMisses = 50549 numOfCacheMisses_aux = 0 numOfCacheEvictions = 2523608 numOfCacheEvictions_aux = 0 numOfNANDPageReads = 3769 TotRequests_SSD = 50549 AvgNumOfRequestsPerAccess_SSD = 1
numOfNANDPageWrites = 4934
Time_RD (in sec): 7.03512
TRICOUNT_graphSSD
numOfSSDPages = 25012
4847571 86220856
i = 0
i = 100000
i = 200000
i = 300000
i = 400000
i = 500000
i = 600000
i = 700000
i = 800000
i = 900000
i = 1000000
i = 1100000
i = 1200000
i = 1300000
i = 1400000
i = 1500000
i = 1600000
i = 1700000
i = 1800000
i = 1900000
i = 2000000
i = 2100000
i = 2200000
i = 2300000
i = 2400000
i = 2500000
i = 2600000
i = 2700000
i = 2800000
i = 2900000
i = 3000000
i = 3100000
i = 3200000
i = 3300000
i = 3400000
i = 3500000
i = 3600000
i = 3700000
i = 3800000
i = 3900000
i = 4000000
i = 4100000
i = 4200000
i = 4300000
i = 4400000
i = 4500000
i = 4600000
i = 4700000
i = 4800000
285730264

TIME_RD: 6461.684364
MaxCacheSize = 3642737 numOfCacheAccesses = 32389014 numOfCacheAccesses_aux = 0 numOfCacheMisses = 21050315 numOfCacheMisses_aux = 0 numOfCacheEvictions = 116239166 numOfCacheEvictions_aux = 0 numOfNANDPageReads = 20903987 TotRequests_SSD = 21056390 AvgNumOfRequestsPerAccess_SSD = 1.00029
numOfNANDPageWrites = 27061
Time_RD (in sec): 18289
BaselineResults
roadNet-CA.txt
TRICOUNT
/Datasets/Benchmarks/SNAP/ProcessedGraphs/CSRLayout/Undirected_graphs/roadNet-CA_undirected_sorted_flash.txt
NumNodes = 1965206 numOfEdges = 5533214
i = 0
i = 100000
i = 200000
i = 300000
i = 400000
i = 500000
i = 600000
i = 700000
i = 800000
i = 900000
i = 1000000
i = 1100000
i = 1200000
i = 1300000
i = 1400000
i = 1500000
i = 1600000
i = 1700000
i = 1800000
i = 1900000
120676

TIME_RD: 6.720609

TIME_RD_IO: 2.940555
MaxCacheSize = 299936 numOfCacheAccesses = 4544180 numOfCacheAccesses_aux = 0 numOfCacheMisses = 63887 numOfCacheMisses_aux = 0 numOfCacheEvictions = 2331914 numOfCacheEvictions_aux = 0 numOfNANDPageReads = 3042 TotNumOfRequestsPerAccess_SSD = 65296 AvgNumOfRequestsPerAccess_SSD = 1.02205 numOfRowPtrMisses = 18043 numOfRowPtrHits = 2253777 numOfColumnIndexMisses = 45356 numOfColumnIndexHits = 2226464
Time_RD (in sec): 4.64236
ProcessedGraphs/GraphSSDLayout/Undirected_graphs/GraphChi/soc-LiveJournal1.net
TRICOUNT
/Datasets/Benchmarks/SNAP/ProcessedGraphs/CSRLayout/Undirected_graphs/soc-LiveJournal1_undirected_sorted_flash.net
NumNodes = 4847571 numOfEdges = 86216906
i = 0
i = 100000
i = 200000
i = 300000
i = 400000
i = 500000
i = 600000
i = 700000
i = 800000
i = 900000
i = 1000000
i = 1100000
i = 1200000
i = 1300000
i = 1400000
i = 1500000
i = 1600000
i = 1700000
i = 1800000
i = 1900000
i = 2000000
i = 2100000
i = 2200000
i = 2300000
i = 2400000
i = 2500000
i = 2600000
i = 2700000
i = 2800000
i = 2900000
i = 3000000
i = 3100000
i = 3200000
i = 3300000
i = 3400000
i = 3500000
i = 3600000
i = 3700000
i = 3800000
i = 3900000
i = 4000000
i = 4100000
i = 4200000
i = 4300000
i = 4400000
i = 4500000
i = 4600000
i = 4700000
i = 4800000
285730264

TIME_RD: 8098.274644

TIME_RD_IO: 39.734692
MaxCacheSize = 3642579 numOfCacheAccesses = 62456502 numOfCacheAccesses_aux = 0 numOfCacheMisses = 30742402 numOfCacheMisses_aux = 0 numOfCacheEvictions = 67543728 numOfCacheEvictions_aux = 0 numOfNANDPageReads = 29313780 TotNumOfRequestsPerAccess_SSD = 32309413 AvgNumOfRequestsPerAccess_SSD = 1.05097 numOfRowPtrMisses = 8903312 numOfRowPtrHits = 22320297 numOfColumnIndexMisses = 21834147 numOfColumnIndexHits = 9389462
Time_RD (in sec): 24409.7
