numOfSSDPages = 506608
65608366 1806067135

TIME_BINARY_SEARCH: 15936882.000000 15935583.000000 0.000001

TIME_COPY: -6353.016205

TIME_POST_PROCESS: -6353.016211

TIME_BINARY_SEARCH: 16268855.000000 16268617.000000 0.000000

TIME_COPY: -6353.016272

TIME_POST_PROCESS: -6353.016276
Found the required element

TIME_RD: 17.970563
MaxCacheSize = 374335100 numOfCacheAccesses = 65634677 numOfCacheAccesses_aux = 65634135 numOfCacheMisses = 16030 numOfCacheMisses_aux = 16018 numOfCacheEvictions = 0 numOfCacheEvictions_aux = 0 numOfNANDPageReads = 4018 TotRequests_SSD = 16030 AvgNumOfRequestsPerAccess_SSD = 1
Time_RD (in sec): 6.50588
65608366 1806067135

TIME_BINARY_SEARCH: 416586959.000000 416585277.000000 0.000002

TIME_COPY: -6372.416854

TIME_POST_PROCESS: -6372.416860

TIME_BINARY_SEARCH: 416913712.000000 416913470.000000 0.000000

TIME_COPY: -6372.416917

TIME_POST_PROCESS: -6372.416921
Found the required element

TIME_RD: 45.114325
MaxCacheSize = 374335100 numOfCacheAccesses = 79695812 numOfCacheAccesses_aux = 79565855 numOfCacheMisses = 75998 numOfCacheMisses_aux = 17473 numOfCacheEvictions = 160205 numOfCacheEvictions_aux = 1455 numOfNANDPageReads = 63702 TotRequests_SSD = 75998 AvgNumOfRequestsPerAccess_SSD = 1
Time_RD (in sec): 61.9558
65608366 1806067135

TIME_BINARY_SEARCH: 430255104.000000 430253222.000000 0.000002

TIME_COPY: -6418.430528

TIME_POST_PROCESS: -6418.430534

TIME_BINARY_SEARCH: 430609330.000000 430609044.000000 0.000000

TIME_COPY: -6418.430613

TIME_POST_PROCESS: -6418.430618
Found the required element

TIME_RD: 854.845069
MaxCacheSize = 374335100 numOfCacheAccesses = 418444452 numOfCacheAccesses_aux = 415727709 numOfCacheMisses = 1927008 numOfCacheMisses_aux = 76871 numOfCacheEvictions = 7386051 numOfCacheEvictions_aux = 60853 numOfNANDPageReads = 1900288 TotRequests_SSD = 1927008 AvgNumOfRequestsPerAccess_SSD = 1
Time_RD (in sec): 1667.82
65608366 1806067135

TIME_BINARY_SEARCH: 655079491.000000 655077664.000000 0.000002

TIME_COPY: -7288.655353

TIME_POST_PROCESS: -7288.655358

TIME_BINARY_SEARCH: 655415725.000000 655415485.000000 0.000000

TIME_COPY: -7288.655419

TIME_POST_PROCESS: -7288.655423
Found the required element

TIME_RD: 18.192138
MaxCacheSize = 2994680801 numOfCacheAccesses = 65634677 numOfCacheAccesses_aux = 65634135 numOfCacheMisses = 16030 numOfCacheMisses_aux = 16018 numOfCacheEvictions = 0 numOfCacheEvictions_aux = 0 numOfNANDPageReads = 4018 TotRequests_SSD = 16030 AvgNumOfRequestsPerAccess_SSD = 1
Time_RD (in sec): 6.50588
65608366 1806067135

TIME_BINARY_SEARCH: 407103801.000000 407101980.000000 0.000002

TIME_COPY: -7308.407376

TIME_POST_PROCESS: -7308.407381

TIME_BINARY_SEARCH: 407439463.000000 407439220.000000 0.000000

TIME_COPY: -7308.407443

TIME_POST_PROCESS: -7308.407447
Found the required element

TIME_RD: 41.381469
MaxCacheSize = 2994680801 numOfCacheAccesses = 79695812 numOfCacheAccesses_aux = 79565855 numOfCacheMisses = 67258 numOfCacheMisses_aux = 16018 numOfCacheEvictions = 0 numOfCacheEvictions_aux = 0 numOfNANDPageReads = 55246 TotRequests_SSD = 67258 AvgNumOfRequestsPerAccess_SSD = 1
Time_RD (in sec): 54.2874
65608366 1806067135

TIME_BINARY_SEARCH: 247766154.000000 247764162.000000 0.000002

TIME_COPY: -7364.248038

TIME_POST_PROCESS: -7364.248044

TIME_BINARY_SEARCH: 248108326.000000 248108060.000000 0.000000

TIME_COPY: -7364.248112

TIME_POST_PROCESS: -7364.248117
Found the required element

TIME_RD: 531.471802
MaxCacheSize = 2994680801 numOfCacheAccesses = 418444452 numOfCacheAccesses_aux = 415727709 numOfCacheMisses = 1031624 numOfCacheMisses_aux = 16020 numOfCacheEvictions = 3347492 numOfCacheEvictions_aux = 2 numOfNANDPageReads = 1019612 TotRequests_SSD = 1031624 AvgNumOfRequestsPerAccess_SSD = 1
Time_RD (in sec): 896.888
BaselineResults
sx-stackoverflow.txt
/Datasets/Benchmarks/SNAP/ProcessedGraphs/CSRLayout/sx-stackoverflow_flash.txt
NumNodes = 65608366 numOfEdges = 1806067135
Found the required element

TIME_RD: 134.811766

TIME_RD_IO: 0.006515
MaxCacheSize = 374335100 numOfCacheAccesses = 65635673 numOfCacheAccesses_aux = 65634135 numOfCacheMisses = 16051 numOfCacheMisses_aux = 16018 numOfCacheEvictions = 0 numOfCacheEvictions_aux = 0 numOfNANDPageReads = 4020 TotNumOfRequestsPerAccess_SSD = 16056 AvgNumOfRequestsPerAccess_SSD = 1.00031
Time_RD (in sec): 6.50812
/Datasets/Benchmarks/SNAP/ProcessedGraphs/CSRLayout/sx-stackoverflow_flash.txt
NumNodes = 65608366 numOfEdges = 1806067135
Found the required element

TIME_RD: 185.979795

TIME_RD_IO: 23.733751
MaxCacheSize = 374335100 numOfCacheAccesses = 79941526 numOfCacheAccesses_aux = 79565855 numOfCacheMisses = 99572 numOfCacheMisses_aux = 16055 numOfCacheEvictions = 14430 numOfCacheEvictions_aux = 37 numOfNANDPageReads = 84725 TotNumOfRequestsPerAccess_SSD = 101448 AvgNumOfRequestsPerAccess_SSD = 1.01884
Time_RD (in sec): 79.8617
/Datasets/Benchmarks/SNAP/ProcessedGraphs/CSRLayout/sx-stackoverflow_flash.txt
NumNodes = 65608366 numOfEdges = 1806067135
Found the required element

TIME_RD: 1549.746040

TIME_RD_IO: 700.634247
MaxCacheSize = 374335100 numOfCacheAccesses = 423694140 numOfCacheAccesses_aux = 415727709 numOfCacheMisses = 2430065 numOfCacheMisses_aux = 22254 numOfCacheEvictions = 2587973 numOfCacheEvictions_aux = 6066 numOfNANDPageReads = 2418320 TotNumOfRequestsPerAccess_SSD = 2504462 AvgNumOfRequestsPerAccess_SSD = 1.03062
Time_RD (in sec): 2059.46
/Datasets/Benchmarks/SNAP/ProcessedGraphs/CSRLayout/sx-stackoverflow_flash.txt
NumNodes = 65608366 numOfEdges = 1806067135
Found the required element

TIME_RD: 135.004119

TIME_RD_IO: 0.006678
MaxCacheSize = 2994680801 numOfCacheAccesses = 65635673 numOfCacheAccesses_aux = 65634135 numOfCacheMisses = 16051 numOfCacheMisses_aux = 16018 numOfCacheEvictions = 0 numOfCacheEvictions_aux = 0 numOfNANDPageReads = 4020 TotNumOfRequestsPerAccess_SSD = 16056 AvgNumOfRequestsPerAccess_SSD = 1.00031
Time_RD (in sec): 6.50812
/Datasets/Benchmarks/SNAP/ProcessedGraphs/CSRLayout/sx-stackoverflow_flash.txt
NumNodes = 65608366 numOfEdges = 1806067135
Found the required element

TIME_RD: 184.860033

TIME_RD_IO: 23.079008
MaxCacheSize = 2994680801 numOfCacheAccesses = 79941526 numOfCacheAccesses_aux = 79565855 numOfCacheMisses = 98330 numOfCacheMisses_aux = 16018 numOfCacheEvictions = 0 numOfCacheEvictions_aux = 0 numOfNANDPageReads = 83518 TotNumOfRequestsPerAccess_SSD = 100197 AvgNumOfRequestsPerAccess_SSD = 1.01899
Time_RD (in sec): 78.7794
/Datasets/Benchmarks/SNAP/ProcessedGraphs/CSRLayout/sx-stackoverflow_flash.txt
NumNodes = 65608366 numOfEdges = 1806067135
Found the required element

TIME_RD: 1253.050327

TIME_RD_IO: 395.015241
MaxCacheSize = 2994680801 numOfCacheAccesses = 423694140 numOfCacheAccesses_aux = 415727709 numOfCacheMisses = 1291681 numOfCacheMisses_aux = 16018 numOfCacheEvictions = 698200 numOfCacheEvictions_aux = 0 numOfNANDPageReads = 1308775 TotNumOfRequestsPerAccess_SSD = 1354063 AvgNumOfRequestsPerAccess_SSD = 1.0483
Time_RD (in sec): 1096.79
