numOfSSDPages = 1917
1069370 4516088
numOfQueries = 1000
Entering 1
ExtraVerticesAdded = 0 ExtraEdgesAdded = 0
size of newlyAddedOrUpdatedVertices = 104857
Entering 2
Entering 3
Entering 4
Entering 5
Finished after ADD_UPDATES
MaxCacheSize = 1117091 numOfCacheAccesses = 1487730 numOfCacheAccesses_aux = 0 numOfCacheMisses = 1607 numOfCacheMisses_aux = 0 numOfCacheEvictions = 1335 numOfCacheEvictions_aux = 0 numOfNANDPageReads = 404 TotRequests_SSD = 1607 AvgNumOfRequestsPerAccess_SSD = 1
numOfNANDPageWrites = 8377
Time_RD (in sec): 1.88623
 numOfCacheAccesses_buf = 1487730 numOfCacheMisses_buf = 1607 numOfCacheEvictions_buf = 1335
Finished merge buffer
MaxCacheSize = 1117091 numOfCacheAccesses = 1487730 numOfCacheAccesses_aux = 0 numOfCacheMisses = 1607 numOfCacheMisses_aux = 0 numOfCacheEvictions = 1335 numOfCacheEvictions_aux = 0 numOfNANDPageReads = 404 TotRequests_SSD = 1607 AvgNumOfRequestsPerAccess_SSD = 1
numOfNANDPageWrites = 8377
Time_RD (in sec): 1.88623
 numOfCacheAccesses_buf = 1487730 numOfCacheMisses_buf = 1607 numOfCacheEvictions_buf = 1335
Finished after update querying
MaxCacheSize = 1117091 numOfCacheAccesses = 1489425 numOfCacheAccesses_aux = 0 numOfCacheMisses = 2687 numOfCacheMisses_aux = 0 numOfCacheEvictions = 5238 numOfCacheEvictions_aux = 0 numOfNANDPageReads = 1416 TotRequests_SSD = 2687 AvgNumOfRequestsPerAccess_SSD = 1
numOfNANDPageWrites = 8505
Time_RD (in sec): 2.80366
 numOfCacheAccesses_buf = 1488425 numOfCacheMisses_buf = 1746 numOfCacheEvictions_buf = 1474
