numOfSSDPages = 25
200 194
204 178
208 96
212 97
216 96
220 106
224 117
228 159
232 193
236 196
240 137
244 263
248 294
252 83
256 117
260 135
264 160
268 324
272 59
276 62
280 69
284 96
288 155
292 264
296 389
currentGTTIndex_edge =  24 GraphLPN = 74
4039 88234

TIME_BINARY_SEARCH: 324293437.000000 324293041.000000 0.000000

TIME_COPY: -169688.325085

TIME_POST_PROCESS: -169688.325094

TIME_BINARY_SEARCH: 325110824.000000 325110692.000000 0.000000

TIME_COPY: -169688.325874

TIME_POST_PROCESS: -169688.325883

TIME_RD: 0.023763
Time_RD (in sec): 0.023075
